This is BibTeX, Version 0.99dThe top-level auxiliary file: glowny.aux
The style file: unsrt.bst
A level-1 auxiliary file: dodatekA.aux
A level-1 auxiliary file: dodatekB.aux
Database file #1: bibliografia.bib
Warning--empty author in art11
Warning--empty booktitle in art11
Warning--there's a month but no year in art11
Warning--empty publisher in art16
Warning--empty publisher in art17
Warning--empty publisher in art18
Warning--empty booktitle in art19
Warning--empty publisher in art20
Warning--empty publisher in art21
(There were 9 warnings)
