\BOOKMARK [0][-]{chapter*.2}{Streszczenie}{}% 1
\BOOKMARK [0][-]{chapter*.4}{Wstep}{}% 2
\BOOKMARK [0][-]{chapter.1}{Analiza i opis problemu}{}% 3
\BOOKMARK [0][-]{chapter.2}{Algorytm zach\233anny}{}% 4
\BOOKMARK [1][-]{section.2.1}{Opis algorytmu}{chapter.2}% 5
\BOOKMARK [1][-]{section.2.2}{Operatory optymalizujace}{chapter.2}% 6
\BOOKMARK [2][-]{subsection.2.2.1}{Operator 2-opt}{section.2.2}% 7
\BOOKMARK [2][-]{subsection.2.2.2}{Operator zamiany}{section.2.2}% 8
\BOOKMARK [2][-]{subsection.2.2.3}{Operator wstawiania}{section.2.2}% 9
\BOOKMARK [0][-]{chapter.3}{Algorytm genetyczny}{}% 10
\BOOKMARK [1][-]{section.3.1}{Opis algorytmu}{chapter.3}% 11
\BOOKMARK [1][-]{section.3.2}{Populacja poczatkowa}{chapter.3}% 12
\BOOKMARK [1][-]{section.3.3}{Operatory}{chapter.3}% 13
\BOOKMARK [2][-]{subsection.3.3.1}{Krzyzowanie}{section.3.3}% 14
\BOOKMARK [2][-]{subsection.3.3.2}{Mutacja}{section.3.3}% 15
\BOOKMARK [2][-]{subsection.3.3.3}{Selekcja}{section.3.3}% 16
\BOOKMARK [2][-]{subsection.3.3.4}{Warunek stopu}{section.3.3}% 17
\BOOKMARK [0][-]{chapter.4}{Algorytm hybrydowy}{}% 18
\BOOKMARK [1][-]{section.4.1}{Opis algorytmu}{chapter.4}% 19
\BOOKMARK [1][-]{section.4.2}{Operator 2-opt}{chapter.4}% 20
\BOOKMARK [0][-]{chapter.5}{Dane i eksperymenty}{}% 21
\BOOKMARK [1][-]{section.5.1}{Dane rzeczywiste}{chapter.5}% 22
\BOOKMARK [1][-]{section.5.2}{Algorytm zach\233anny}{chapter.5}% 23
\BOOKMARK [1][-]{section.5.3}{Algorytm genetyczny}{chapter.5}% 24
\BOOKMARK [1][-]{section.5.4}{Algorytm hybrydowy}{chapter.5}% 25
\BOOKMARK [1][-]{section.5.5}{Kalibracja parametr\363w}{chapter.5}% 26
\BOOKMARK [2][-]{subsection.5.5.1}{Parametry algorytmu genetycznego i hybrydowego}{section.5.5}% 27
\BOOKMARK [2][-]{subsection.5.5.2}{Warunek stopu}{section.5.5}% 28
\BOOKMARK [1][-]{section.5.6}{Wnioski z uzyskanych wynik\363w}{chapter.5}% 29
\BOOKMARK [2][-]{subsection.5.6.1}{Por\363wnanie}{section.5.6}% 30
\BOOKMARK [2][-]{subsection.5.6.2}{Statystyki}{section.5.6}% 31
\BOOKMARK [1][-]{section.5.7}{Testowanie poprawnosci}{chapter.5}% 32
\BOOKMARK [1][-]{section.5.8}{Przyk\233adowe sciezki}{chapter.5}% 33
\BOOKMARK [0][-]{chapter.6}{Eksperymenty na benchmarkach}{}% 34
\BOOKMARK [1][-]{section.6.1}{Dane}{chapter.6}% 35
\BOOKMARK [1][-]{section.6.2}{Generowanie trasy poczatkowej}{chapter.6}% 36
\BOOKMARK [1][-]{section.6.3}{Algorytm zach\233anny}{chapter.6}% 37
\BOOKMARK [1][-]{section.6.4}{Algorytm genetyczny}{chapter.6}% 38
\BOOKMARK [1][-]{section.6.5}{Algorytm hybrydowy}{chapter.6}% 39
\BOOKMARK [1][-]{section.6.6}{Kalibracja parametr\363w}{chapter.6}% 40
\BOOKMARK [1][-]{section.6.7}{Wyniki}{chapter.6}% 41
\BOOKMARK [2][-]{subsection.6.7.1}{Por\363wnanie profitu algorytm\363w}{section.6.7}% 42
\BOOKMARK [2][-]{subsection.6.7.2}{Por\363wnanie czasu wykonania algorytm\363w}{section.6.7}% 43
\BOOKMARK [0][-]{chapter.7}{Z\233ozonosc algorytm\363w}{}% 44
\BOOKMARK [0][-]{chapter.8}{Zastosowania}{}% 45
\BOOKMARK [0][-]{chapter*.48}{Podsumowanie}{}% 46
\BOOKMARK [0][-]{chapter*.49}{Bibliografia}{}% 47
\BOOKMARK [0][-]{chapter*.50}{Spis tabel}{}% 48
\BOOKMARK [0][-]{chapter*.51}{Spis rysunk\363w}{}% 49
\BOOKMARK [0][-]{chapter*.52}{Spis listing\363w}{}% 50
\BOOKMARK [0][-]{appendix.A}{Dodatek - profit na benchmarkach}{}% 51
\BOOKMARK [0][-]{appendix.B}{Dodatek - czas wykonania na benchmarkach}{}% 52
