\babel@toc {polish}{}
\babel@toc {polish}{}
\addvspace {10\p@ }
\addvspace {10\p@ }
\addvspace {10\p@ }
\addvspace {10\p@ }
\addvspace {10\p@ }
\contentsline {table}{\numberline {5.1}{\ignorespaces Wyniki podstawowej wersji algorytmu zach\IeC {\l }annego\relax }}{58}{table.caption.27}
\contentsline {table}{\numberline {5.2}{\ignorespaces Wyniki algorytmu zach\IeC {\l }annego z wykorzystaniem operatora 2-opt\relax }}{58}{table.caption.28}
\contentsline {table}{\numberline {5.3}{\ignorespaces Wyniki algorytmu zach\IeC {\l }annego z wykorzystaniem wszystkich operator\'ow\relax }}{58}{table.caption.29}
\contentsline {table}{\numberline {5.4}{\ignorespaces Wyniki algorytmu zach\IeC {\l }annego dla parametru mod=1.2\relax }}{59}{table.caption.30}
\contentsline {table}{\numberline {5.5}{\ignorespaces Wyniki algorytmu genetycznego\relax }}{59}{table.caption.31}
\contentsline {table}{\numberline {5.6}{\ignorespaces Wyniki algorytmu hybrydowego\relax }}{59}{table.caption.32}
\contentsline {table}{\numberline {5.7}{\ignorespaces Por\'ownanie wynik\'ow algorytmu zach\IeC {\l }annego z algorytmem genetycznym\relax }}{60}{table.caption.33}
\contentsline {table}{\numberline {5.8}{\ignorespaces Por\'ownanie wynik\'ow algorytmu genetycznego z algorytmem hybrydowym\relax }}{60}{table.caption.34}
\contentsline {table}{\numberline {5.9}{\ignorespaces Por\'ownanie wynik\'ow algorytmu zach\IeC {\l }annego z algorytmem hybrydowym\relax }}{61}{table.caption.35}
\contentsline {table}{\numberline {5.10}{\ignorespaces Statystyki profitu oraz czasu wykonania algorytmu genetycznego\relax }}{61}{table.caption.36}
\contentsline {table}{\numberline {5.11}{\ignorespaces Statystyki profitu oraz czasu wykonania algorytmu hybrydowego\relax }}{62}{table.caption.37}
\addvspace {10\p@ }
\contentsline {table}{\numberline {6.1}{\ignorespaces Wyniki sumaryczne algorytm\'ow w podziale na poszczeg\'olne zestawy danych\relax }}{69}{table.caption.41}
\addvspace {10\p@ }
\addvspace {10\p@ }
\addvspace {10\p@ }
\addvspace {10\p@ }
